#
# Example mercenary companies
#

merc__local_free_company = {
    regiments_per_development = 0.025
    cavalry_weight = 0.1
    artillery_weight = 0.1
    cavalry_cap = 2
    cost_modifier = 0.75
    trigger = {
		total_development = 150
		NOT = { has_country_modifier = monstrous_nation }
    }
    # No home province means local mercenary company
}

merc__local_small_company = {
    regiments_per_development = 0.07
    cavalry_weight = 0.1
    artillery_weight = 0.1
    cavalry_cap = 2
    trigger = {
		NOT = { total_development = 150 }
		NOT = { has_country_modifier = monstrous_nation }
    }
    cost_modifier = 0.3
    modifier = {
        reinforce_speed = -0.25
        recover_army_morale_speed = -0.1
    }
    # No home province means local mercenary company
}

merc__local_free_city_company = {
    regiments_per_development = 0.1
    cavalry_weight = 0.1
    artillery_weight = 0.1
    cavalry_cap = 2
    trigger = {
		has_reform = free_city
		NOT = { has_country_modifier = monstrous_nation }
    }
    cost_modifier = 0.3
    modifier = {
        reinforce_speed = -0.25
        recover_army_morale_speed = -0.1
    }
    # No home province means local mercenary company
}

merc__local_grand_company = {
    regiments_per_development = 0.05
    cavalry_weight = 0.1
    artillery_weight = 0.1
    cavalry_cap = 2
    cost_modifier = 0.75
    trigger = {
		total_development = 150
		NOT = { has_country_modifier = monstrous_nation }
    }
    # No home province means local mercenary company
}

merc__local_independent_army = {
    regiments_per_development = 0.075
    cavalry_weight = 0.1
    artillery_weight = 0.1
    cavalry_cap = 2
    cost_modifier = 0.75
    trigger = {
		total_development = 150
		NOT = { has_country_modifier = monstrous_nation }
    }
    # No home province means local mercenary company
}

merc_local_all_female_company = {
	regiments_per_development = 0.025
	cavalry_weight = 0.1
    artillery_weight = 0.1
    cavalry_cap = 2
	trigger = {
		has_country_flag = female_mercs
		NOT = { has_country_modifier = monstrous_nation }
	}
	modifier = {
		shock_damage_received = 0.05
		land_morale = 0.05
    }
}

#Monstrous locals
merc__local_free_company_monstrous = {			#Monsters-for-hire
    regiments_per_development = 0.025
    cavalry_weight = 0.1
    artillery_weight = 0.1
    cavalry_cap = 2
    cost_modifier = 0.75
    trigger = {
		total_development = 150
		has_country_modifier = monstrous_nation
    }
    # No home province means local mercenary company
}

merc__local_small_company_monstrous = {		#Monsters-for-hire
    regiments_per_development = 0.07
    cavalry_weight = 0.1
    artillery_weight = 0.1
    cavalry_cap = 2
    trigger = {
		NOT = { total_development = 150 }
		has_country_modifier = monstrous_nation
    }
    cost_modifier = 0.3
    modifier = {
        reinforce_speed = -0.25
        recover_army_morale_speed = -0.1
    }
    # No home province means local mercenary company
}

merc__local_grand_company_monstrous = {		#Monstrous Band
    regiments_per_development = 0.05
    cavalry_weight = 0.1
    artillery_weight = 0.1
    cavalry_cap = 2
    cost_modifier = 0.75
    trigger = {
		total_development = 150
		has_country_modifier = monstrous_nation
    }
    # No home province means local mercenary company
}

merc__local_independent_army_monstrous = {		#Monstrous Horde
    regiments_per_development = 0.075
    cavalry_weight = 0.1
    artillery_weight = 0.1
    cavalry_cap = 2
    cost_modifier = 0.75
    trigger = {
		total_development = 150
		has_country_modifier = monstrous_nation
    }
    # No home province means local mercenary company
}

# #Escanni Remigrants
# merc_escanni_remigrants = {
    # regiments_per_development = 0.05
    # cavalry_weight = 0.1
    # artillery_weight = 0.1
    # cavalry_cap = 3
    # cost_modifier = 1
    # trigger = {
        # capital_scope = { superregion = escann_superregion }
		# NOT = { has_country_modifier = monstrous_nation }
		# current_age = age_of_reformation
    # }
    # # No home province means local mercenary company
# }

# # Veteran Adventurers
# merc_veteran_adventurers = {
	# regiments_per_development = 0.05
	# cavalry_weight = 0.2
	# cavalry_cap = 4
	# artillery_weight = 0.3
	# trigger = {
		# custom_trigger_tooltip = {
			# tooltip = veteran_adventurers_tt
			# has_country_flag = unlocked_veteran_adventurer_mercs
		# }
	# }
	# cost_modifier = 0.75
	# modifier = {
		# discipline = 0.025
	# }
# }

# #Aldresian Knights (Emperor or Orda Aldresia only)
# merc_aldresian_knights = {
    # regiments_per_development = 0.01
	# cavalry_weight = 0.4
	# cavalry_cap = 6
	# home_province = 423
	# sprites = { dlc049_ENG_sprite_pack dlc042_eng_sprite_pack dlc028_eng_sprite_pack eng_base_sprite_pack }
    # trigger = {
		# NOT = { has_country_modifier = monstrous_nation}
		# OR = {
			# is_emperor = yes
			# tag = A77
		# }
	# }
	# cost_modifier = 0.8
	# modifier = {
		# shock_damage_received = -0.1
		# land_morale = 0.1
	# }
# }

# #Wardens of the White Wall (Escann) - defenders of inner castonath
# merc_wardens_of_the_white_wall = {
    # regiments_per_development = 0.01
    # home_province = 755
	# cavalry_weight = 0.1
	# cavalry_cap = 4
	# sprites = { dlc028_ned_sprite_pack dlc042_ned_sprite_pack westerngfx_sprite_pack }
    # trigger = {
		# NOT = { has_country_modifier = monstrous_nation}
		# capital_scope = { 
			# OR = {
				# region = inner_castanor_region
			# }
		# }
		# 755 = { 	#owner of the prov aint a monstrous nation
			# is_city = yes
			# owner = { NOT = { has_country_modifier = monstrous_nation } }
		# }
		# NOT = { current_age = age_of_discovery }
	# }
	# cost_modifier = 0.9
	# modifier = {
		# movement_speed = 0.2
		# reinforce_speed = -0.5
		# fire_damage = 0.1
	# }
# }

# #Patrician Guard (Escann) - army of the patricians of North Castonath, need to own Castonath for it
# merc_patrician_guard = {
    # regiments_per_development = 0.02
    # cavalry_weight = 0.1
    # artillery_weight = 0.1
	# cavalry_cap = 2
	# home_province = 833
	# sprites = { dlc028_ned_sprite_pack dlc042_ned_sprite_pack westerngfx_sprite_pack }
    # trigger = {
		# NOT = { has_country_modifier = monstrous_nation}
		# capital_scope = { 
			# OR = {
				# superregion = escann_superregion
				# region = damescrown_region
				# region = esmaria_region
				# region = east_dameshead_region
				# region = the_borders_region
				# region = forlorn_vale_region
				# superregion = deepwoods_superregion
			# }
		# }
		# any_owned_province = {
			# area = castonath_area
		# }
		# 833 = { 	#owner of the prov aint a monstrous nation
			# is_city = yes
			# owner = { NOT = { has_country_modifier = monstrous_nation } }
		# }
		# NOT = { current_age = age_of_discovery }
	# }
	# cost_modifier = 1.5
	# modifier = {
		# discipline = 0.1
	# }
# }