government = monarchy
add_government_reform = feudalism_reform
government_rank = 1
primary_culture = esmari
religion = regent_court
technology_group = tech_cannorian
national_focus = DIP
capital = 275

1000.1.1 = { set_estate_privilege = estate_mages_organization_magisterium }

1422.1.1 = { set_country_flag = lilac_wars_moon_party }

1439.9.4 = {
	monarch = {
		name = "Henric II"
		dynasty = "Konwell"
		birth_date = 1406.11.16
		adm = 3
		dip = 0
		mil = 0
	}
}