government = republic
add_government_reform = gang_control_reform
government_rank = 1
primary_culture = western_yan
religion = lefthand_path
technology_group = tech_halessi
capital = 4620

1421.3.1 = {
	monarch = {
		name = "Bao Li"
		adm = 2
		dip = 6
		mil = 3
		birth_date = 1400.6.3
		death_date = 1477.7.1
		female = no
		culture = western_yan
	}
}

1000.1.1 = { set_estate_privilege = estate_mages_organization_state }