#156 - Temes | 

owner = A40
controller = A40
add_core = A40
culture = exwesser
religion = regent_court

hre = yes

base_tax = 3
base_production = 3
base_manpower = 2

trade_goods = grain
capital = ""

is_city = yes








