#25 - Agder | 

owner = A22
controller = A22
add_core = A22
culture = west_damerian
religion = regent_court

hre = yes

base_tax = 4
base_production = 5
base_manpower = 2

trade_goods = cloth
capital = ""

is_city = yes






