#319 -

owner = A48
controller = A48
add_core = A48
culture = wexonard
religion = regent_court

hre = yes

base_tax = 2
base_production = 2
base_manpower = 2

trade_goods = wool

capital = ""

is_city = yes











