#48 - Kolberg | 

owner = Z05
controller = Z05
add_core = Z05
culture = pearlsedger
religion = regent_court

hre = yes

base_tax = 4
base_production = 4
base_manpower = 3

trade_goods = fish
capital = ""

is_city = yes
fort_15th = yes





