# No previous file for Oudong
owner = F41
controller = F41
add_core = F41
culture = zanite
religion = bulwari_sun_cult

hre = no

base_tax = 5
base_production = 3
base_manpower = 2

trade_goods = silk

capital = ""

is_city = yes












add_permanent_province_modifier = {
	name = elven_minority_integrated_small
	duration = -1
}