# No previous file for Haugrmyrr
owner = Z08
controller = Z08
add_core = Z08
culture = west_dalr
religion = skaldhyrric_faith

hre = no

base_tax = 2
base_production = 2
base_manpower = 1

trade_goods = grain

capital = ""

is_city = yes






