colonial_country_boost_big = {
	colonists = 1
	global_colonial_growth = 200
}

dont_colonize_but_migrate = {
	colonists = -3
}

acolytes_small_cabal = {

}

acolytes_medium_cabal = {

}

acolytes_large_cabal = {

}

homunculus_ruler = {
	heir_chance = -100
	#royal_marriage_acceptance = -50
}

lich_ruler = {
	heir_chance = -100
	#royal_marriage_acceptance = -50
}

cannot_produce_heir = {
	heir_chance = -100
}

diplomatic_pariah = {
	diplomatic_reputation = -5
	improve_relation_modifier = -0.5
	
	global_unrest = -1
	enemy_core_creation = 0.25
	
	unjustified_demands = -0.5
	ae_impact = -0.25
}

evil_nation = {
	diplomatic_reputation = -3
	unjustified_demands = -0.5
	hostile_attrition = 1
	
	global_unrest = -1
	
	land_morale = 0.15
	naval_morale = 0.15
		
	
	ae_impact = -0.2
	enemy_core_creation = 0.25
	
	manpower_recovery_speed = 0.25
	global_manpower_modifier = 0.25
	land_forcelimit_modifier = 0.5
	land_maintenance_modifier = -0.25
	
	sailors_recovery_speed = 0.25
	naval_forcelimit_modifier = 0.25
	naval_maintenance_modifier = -0.25
}

undead_military = {
	global_manpower_modifier = 1
	land_maintenance_modifier = -0.5
	land_forcelimit_modifier = 1
	land_attrition = -0.5
	
	manpower_recovery_speed = 1
	sailors_recovery_speed = 0.5
	reinforce_speed = 1
	reinforce_cost_modifier = -0.5
	
	movement_speed = -0.75
 	drill_gain_modifier = -0.75
	
 	# infantry_power = -0.2
	# cavalry_power = -0.2
 	# artillery_power = -0.2
	
	land_morale = 0.1
	naval_morale = 0.1
	# discipline = -0.1
	
	movement_speed_onto_off_boat_modifier = 0.5
	
	sunk_ship_morale_hit_recieved = -0.33
	
	recover_army_morale_speed = 0.5
	recover_navy_morale_speed = 0.5
	
	reserves_organisation = 0.33
	shock_damage_received = -0.3
	#shock_damage = -0.25
	#fire_damage = -0.25
	fire_damage_received = -0.3
	
	war_exhaustion = -0.02	#negates attrition war exhaustion
	
	hostile_attrition = 2	#undead dudes harassing em
	
	global_unrest = 2
}

wielding_calindal = {
	land_morale = 0.1
	shock_damage = 0.1
	legitimacy = 1
	prestige = 1
}

has_bladechosen = {
	legitimacy = -1
	shock_damage = 0.1
}

blinded_by_the_sword = {
	legitimacy = -2
	prestige = -1
	stability_cost_modifier = 0.5
	diplomatic_reputation = -1
}

in_training_calindal_casual = {
	diplomatic_reputation = -1
	administrative_efficiency = -0.2
}

in_training_calindal_normal = {
	diplomatic_reputation = -1
	administrative_efficiency = -0.2
	yearly_corruption = 0.05
	heir_chance = -0.5
	yearly_absolutism = -0.5
}

in_training_calindal_monastic = {
	diplomatic_reputation = -1
	administrative_efficiency = -0.2
	yearly_corruption = 0.05
	heir_chance = -1
	yearly_absolutism = -1
}

adventurers_hired_mercs = {
	merc_maintenance_modifier = -0.1
}

adventurers_city_development = {
	local_development_cost = -0.1
}


beast_muzzled = {
	land_morale = -0.1
	shock_damage = -0.1
}

unleash_the_beast = {
	shock_damage = 0.1
}

protocol_of_conquest = {
	unjustified_demands = 0.5
}

diplomatic_cabinet = {
	diplomatic_reputation = 1
}

undergoing_reform = {
	stability_cost_modifier = 0.5
}

vampire_hideout = {
	picture = "vampire_hideout"
	trade_goods_size = 0.1
	local_defensiveness = 0.2
}

purged_army = {
	land_morale = -0.1
}

broken_masquerade = {
	global_unrest = 2
	land_morale = -0.1
	diplomatic_reputation = -1
	vampires_influence_modifier = 0.3
	vampires_loyalty_modifier = 0.3
}

restored_masquerade = {
	global_unrest = -1
	vampires_influence_modifier = 0.15
	vampires_loyalty_modifier = 0.15
}

vampire_thrall = {
	prestige = -1
	monarch_lifespan = 0.5
}

wounded_ruler = {
	country_admin_power = -1
	country_diplomatic_power = -1
	country_military_power = -1
	monarch_lifespan = -0.1
}

elder_pact_broken = {
	diplomatic_reputation = -2
	imperial_authority = -0.1
}

monstrous_beast_muzzled = {
	land_morale = -0.1
	shock_damage = -0.1
}

monstrous_unleash_the_beast = {
	shock_damage = 0.1
}

monstrous_protocols_of_conquest = {
	unjustified_demands = 0.5
}

monstrous_newfound_decorum = {
	diplomatic_reputation = 1
}

monstrous_undergoing_reform = {
	stability_cost_modifier = 0.5
}

monstrous_interest = {
	interest = 1
}

monstrous_societal_reforms = {
	idea_cost = 0.33
}

ruler_incoherent_orders = {
	land_morale = -0.1
	discipline = -0.05
}

ruler_complecent_ruler = {
	yearly_corruption = 0.1
	global_tax_modifier = -0.2
}

ruler_antagonized_advisor = {
	advisor_cost = 0.33
}

ruler_stupid_administration_reform = {
	state_maintenance_modifier = 1
}