anb_initialize_schools_effect = { #Used in on_startup on_action
	if = {
		limit = { NOT = { has_global_flag = abn_schools_initiated } }
		set_global_flag = abn_schools_initiated
		#Unbroken Claw vs Radiant Sun
		random_country = { 
			limit = {
				religious_school = {
					group = raheni
					school = unbroken_claw_school
				}
			}
			random_country = {
				limit = {
					religious_school = {
						group = raheni
						school = radiant_sun_school
					}
				}
				set_school_opinion = {
					who = PREV
					opinion = -1
				}
			}
		}
		random_country = { 
			limit = {
				religious_school = {
					group = raheni
					school = radiant_sun_school
				}
			}
			random_country = {
				limit = {
					religious_school = {
						group = raheni
						school = unbroken_claw_school
					}
				}
				set_school_opinion = {
					who = PREV
					opinion = -1
				}
			}
		}
		#Radiant Sun vs Starry Eye
		random_country = { 
			limit = {
				religious_school = {
					group = raheni
					school = radiant_sun_school
				}
			}
			random_country = {
				limit = {
					religious_school = {
						group = raheni
						school = starry_eye_school
					}
				}
				set_school_opinion = {
					who = PREV
					opinion = -1
				}
			}
		}
		random_country = { 
			limit = {
				religious_school = {
					group = raheni
					school = starry_eye_school
				}
			}
			random_country = {
				limit = {
					religious_school = {
						group = raheni
						school = radiant_sun_school
					}
				}
				set_school_opinion = {
					who = PREV
					opinion = -1
				}
			}
		}
		#Orange Sash vs Radiant Sun
		random_country = { 
			limit = {
				religious_school = {
					group = raheni
					school = orange_sash_school
				}
			}
			random_country = {
				limit = {
					religious_school = {
						group = raheni
						school = radiant_sun_school
					}
				}
				set_school_opinion = {
					who = PREV
					opinion = -1
				}
			}
		}
		random_country = { 
			limit = {
				religious_school = {
					group = raheni
					school = radiant_sun_school
				}
			}
			random_country = {
				limit = {
					religious_school = {
						group = raheni
						school = orange_sash_school
					}
				}
				set_school_opinion = {
					who = PREV
					opinion = -1
				}
			}
		}
		#Golden Palace vs Silk Turban
		random_country = { 
			limit = {
				religious_school = {
					group = raheni
					school = golden_palace_school
				}
			}
			random_country = {
				limit = {
					religious_school = {
						group = raheni
						school = silk_turban_school
					}
				}
				set_school_opinion = {
					who = PREV
					opinion = -1
				}
			}
		}
		random_country = { 
			limit = {
				religious_school = {
					group = raheni
					school = silk_turban_school
				}
			}
			random_country = {
				limit = {
					religious_school = {
						group = raheni
						school = golden_palace_school
					}
				}
				set_school_opinion = {
					who = PREV
					opinion = -1
				}
			}
		}
		#Orange Sash vs Silk Turban
		random_country = { 
			limit = {
				religious_school = {
					group = raheni
					school = orange_sash_school
				}
			}
			random_country = {
				limit = {
					religious_school = {
						group = raheni
						school = silk_turban_school
					}
				}
				set_school_opinion = {
					who = PREV
					opinion = -1
				}
			}
		}
		random_country = { 
			limit = {
				religious_school = {
					group = raheni
					school = silk_turban_school
				}
			}
			random_country = {
				limit = {
					religious_school = {
						group = raheni
						school = orange_sash_school
					}
				}
				set_school_opinion = {
					who = PREV
					opinion = -1
				}
			}
		}
	}
}
